Meeting Date,Document,The_URL
1/26/2022,City Council - Attendance and Divided Roll Call Vote,https://chicityclerk.s3.amazonaws.com/s3fs-public/document_uploads/council-reports/2022/Attn-DRC%20for%2001-26-2022.pdf
12/15/2021,City Council - Attendance and Divided Roll Call Vote,https://chicityclerk.s3.amazonaws.com/s3fs-public/document_uploads/council-reports/2021/Attn-DRC%20for%2012-15-2021%20%281%29.pdf
11/17/2021,City Council - Attendance and Divided Roll Call Vote,https://chicityclerk.s3.amazonaws.com/s3fs-public/document_uploads/council-reports/2021/Attn-DRC%20for%2011-17-2021%20%281%29.pdf
10/29/2021,City Council - Attendance and Divided Roll Call Vote,https://chicityclerk.s3.amazonaws.com/s3fs-public/document_uploads/council-reports/2021/Attn-DRC%20for%2010-29-2021.pdf
10/27/2021,City Council - Attendance and Divided Roll Call Vote,https://chicityclerk.s3.amazonaws.com/s3fs-public/document_uploads/council-reports/2021/Attn-DRC%20for%2010-27-2021.pdf
10/25/2021,City Council - Attendance and Divided Roll Call Vote,https://chicityclerk.s3.amazonaws.com/s3fs-public/document_uploads/council-reports/2021/Attn-DRC%20for%2010-25-2021.pdf
9/20/2021,City Council - Attendance and Divided Roll Call Vote,https://chicityclerk.s3.amazonaws.com/s3fs-public/document_uploads/council-reports/2021/Attn-DRC%20for%2009-20-2021.pdf
9/14/2021,City Council - Attendance and Divided Roll Call Vote,https://chicityclerk.s3.amazonaws.com/s3fs-public/document_uploads/council-reports/2021/Attn-DRC%20for%2009-14-2021.pdf
7/21/2021,Attendance and Divided Roll Call Vote,https://chicityclerk.s3.amazonaws.com/s3fs-public/document_uploads/council-reports/2021/Attn-DRC%20for%2007-21-2021.pdf
6/25/2021,City Council - Attendance and Divided Roll Call Vote,https://chicityclerk.s3.amazonaws.com/s3fs-public/document_uploads/council-reports/2021/Attn-DRC%20for%2006-25-2021.pdf
6/23/2021,City Council - Attendance and Divided Roll Call Vote,https://chicityclerk.s3.amazonaws.com/s3fs-public/document_uploads/council-reports/2021/Attn-DRC%20for%2006-23-2021.pdf
5/26/2021,City Council - Attendance and Divided Roll Call Vote,https://chicityclerk.s3.amazonaws.com/s3fs-public/document_uploads/council-reports/2021/Attn-DRC%20for%2005-26-2021.pdf
4/21/2021,City Council - Attendance and Divided Roll Call Vote,https://chicityclerk.s3.amazonaws.com/s3fs-public/document_uploads/council-reports/2021/Attn-DRC%20for%2004-21-2021.pdf
3/24/2021,City Council - Attendance and Divided Roll Call Vote,https://chicityclerk.s3.amazonaws.com/s3fs-public/document_uploads/council-reports/2021/Attn-DRC%20for%2003-24-2021%20%281%29.pdf
2/26/2021,City Council - Attendance and Divided Roll Call Vote,https://chicityclerk.s3.amazonaws.com/s3fs-public/document_uploads/council-reports/2021/Attn-DRC%20for%2002-26-2021.pdf
2/24/2021,City Council - Attendance and Divided Roll Call Vote,https://chicityclerk.s3.amazonaws.com/s3fs-public/document_uploads/council-reports/2021/Attn-DRC%20for%2002-24-2021.pdf
1/27/2021,City Council - Attendance and Divided Roll Call Vote,https://chicityclerk.s3.amazonaws.com/s3fs-public/document_uploads/council-reports/2021/Attn-DRC%20for%2001-27-2021.pdf
11/24/2020,City Council - Attendance and Divided Roll Call Vote,https://chicityclerk.s3.amazonaws.com/s3fs-public/document_uploads/council-reports/2020/Attn-DRC%20for%2011-24-2020%20%281%29.pdf
11/23/2020,City Council - Attendance and Divided Roll Call Vote,https://chicityclerk.s3.amazonaws.com/s3fs-public/document_uploads/council-reports/2020/Attn-DRC%20for%2011-23-2020.pdf
11/16/2020,City Council - Attendance and Divided Roll Call Vote,https://chicityclerk.s3.amazonaws.com/s3fs-public/document_uploads/council-reports/2020/Attn-DRC%20for%2011-16-2020.pdf
10/7/2020,City Council - Attendance and Divided Roll Call Vote,https://chicityclerk.s3.amazonaws.com/s3fs-public/document_uploads/council-reports/2020/Attn-DRC%20for%2010-07-2020.pdf
9/9/2020,City Council - Attendance and Divided Roll Call Vote,https://chicityclerk.s3.amazonaws.com/s3fs-public/document_uploads/council-reports/2020/Attn-DRC%20for%2009-09-2020.pdf
8/21/2020,City Council - Attendance and Divided Roll Call Vote,https://chicityclerk.s3.amazonaws.com/s3fs-public/document_uploads/council-reports/2020/Attn-DRC%20for%2008-21-2020.pdf
7/22/2020,City Council - Attendance and Divided Roll Call Vote,https://chicityclerk.s3.amazonaws.com/s3fs-public/document_uploads/council-reports/2020/Attn-DRC%20for%2007-22-2020.pdf
6/17/2020,City Council - Attendance and Divided Roll Call Vote,https://chicityclerk.s3.amazonaws.com/s3fs-public/document_uploads/council-reports/2020/Attn-DRC for 06-17-2020.pdf
5/20/2020,City Council - Attendance and Divided Roll Call Vote,https://chicityclerk.s3.amazonaws.com/s3fs-public/document_uploads/council-reports/2020/Attn-DRC for 05-20-2020.pdf
4/24/2020,City Council - Attendance and Divided Roll Call Vote,https://chicityclerk.s3.amazonaws.com/s3fs-public/document_uploads/council-reports/2020/Attn-DRC for 04-24-2020.pdf
4/22/2020,City Council - Attendance and Divided Roll Call Vote,https://chicityclerk.s3.amazonaws.com/s3fs-public/document_uploads/council-reports/2020/Attn-DRC for 04-22-2020.pdf
2/19/2020,City Council - Attendance and Divided Roll Call Vote,https://chicityclerk.s3.amazonaws.com/s3fs-public/document_uploads/council-reports/2020/Attn-DRC%20for%2002.19.2020.pdf
1/15/2020,City Council - Attendance and Divided Roll Call Vote,https://chicityclerk.s3.amazonaws.com/s3fs-public/document_uploads/council-reports/2020/Attn-DRC%20for%2001-15-2020.pdf
12/18/2019,City Council - Attendance and Divided Roll Call Vote,http://chicityclerk.s3.amazonaws.com/s3fs-public/document_uploads/council-reports/2019/Attn-DRC%20for%2012-18-2019%20%28FINAL%20Legislation%29.pdf
11/26/2019,City Council - Attendance and Divided Roll Call Vote,http://chicityclerk.s3.amazonaws.com/s3fs-public/document_uploads/council-reports/2019/Attn-DRC%20for%2011-26-2019.pdf
11/20/2019,City Council - Attendance and Divided Roll Call Vote,http://chicityclerk.s3.amazonaws.com/s3fs-public/document_uploads/council-reports/2019/Attn-DRC%20for%2011-20-2019.pdf
10/16/2019,City Council - Attendance and Divided Roll Call Vote,http://chicityclerk.s3.amazonaws.com/s3fs-public/document_uploads/council-reports/2019/Attn-DRC%20for%2010-16-2019.pdf
9/18/2019,City Council - Attendance and Divided Roll Call Vote,http://chicityclerk.s3.amazonaws.com/s3fs-public/document_uploads/council-reports/2019/Attn-DRC%20for%2009-18-2019.pdf
7/24/2019,City Council - Attendance and Divided Roll Call Vote,http://chicityclerk.s3.amazonaws.com/s3fs-public/document_uploads/council-reports/2019/Attn-DRC for 7-24-2019 %28FINAL%29 %281%29.pdf
6/12/2019,City Council - Attendance and Divided Roll Call Vote,http://chicityclerk.s3.amazonaws.com/s3fs-public/document_uploads/council-reports/2019/Attn-DRC for 6.12.2019 %281%29.pdf
5/29/2019,City Council - Attendance and Divided Roll Call Vote,http://chicityclerk.s3.amazonaws.com/s3fs-public/document_uploads/council-reports/2019/Attn-DRC for 5.29.2019.pdf
4/10/2019,City Council - Attendance and Divided Roll Call Vote,http://chicityclerk.s3.amazonaws.com/s3fs-public/document_uploads/council-reports/2019/Attn-DRC for 04-10-2019 %28FINAL edit5.3.19%29.pdf
3/13/2019,City Council - Attendance and Divided Roll Call Vote,http://chicityclerk.s3.amazonaws.com/s3fs-public/document_uploads/council-reports/2019/Attn-DRC for 03-13-2019 %28FINAL%29.pdf
1/23/2019,City Council - Attendance and Divided Roll Call Vote,http://chicityclerk.s3.amazonaws.com/s3fs-public/document_uploads/council-reports/2019/Attn-DRC for 01-23-2019_0.pdf
12/12/2018,City Council - Attendance and Divided Roll Call Vote,http://chicityclerk.s3.amazonaws.com/s3fs-public/document_uploads/council-reports/2018/Attn-DRCfor12-12-2018_0.pdf
11/14/2018,City Council - Attendance and Divided Roll Call Vote,http://chicityclerk.s3.amazonaws.com/s3fs-public/document_uploads/council-reports/2018/Attn-DRC for 11-14-2018.pdf
11/7/2018,City Council - Attendance and Divided Roll Call Vote,http://chicityclerk.s3.amazonaws.com/s3fs-public/document_uploads/council-reports/2018/Attn-DRC-for-11-07-2018v1.pdf
10/31/2018,City Council - Attendance and Divided Roll Call Vote,http://chicityclerk.s3.amazonaws.com/s3fs-public/document_uploads/council-reports/2018/AttendanceOctober31-2c-2018.pdf
7/25/2018,City Council - Attendance and Divided Roll Call Vote,http://chicityclerk.s3.amazonaws.com/s3fs-public/document_uploads/council-reports/2018/Attn-DRC 07-27-2018-Final.pdf
6/27/2018,City Council - Attendance and Divided Roll Call Vote,http://chicityclerk.s3.amazonaws.com/s3fs-public/document_uploads/council-reports/2016/Attn-DRC 06-27-2018 Final for Web.pdf
6/27/2018,City Council - Attendance and Divided Roll Call Vote,http://chicityclerk.s3.amazonaws.com/s3fs-public/document_uploads/council-reports/2018/Attn-DRC 06-27-2018 Final for Web.pdf
5/25/2018,City Council - Attendance and Divided Roll Call Vote,http://chicityclerk.s3.amazonaws.com/s3fs-public/document_uploads/referred-matter/2018/Attn-DRC 05-25-2018.pdf
5/23/2018,City Council - Attendance and Divided Roll Call Vote,http://chicityclerk.s3.amazonaws.com/s3fs-public/document_uploads/council-reports/2018/Attn-DRC 05-23-2018.pdf
4/18/2018,City Council - Attendance and Divided Roll Call Vote,http://chicityclerk.s3.amazonaws.com/s3fs-public/document_uploads/council-reports/2018/Attn-DRC 04-18-2018 %28Web%29.pdf
3/28/2018,City Council - Attendance and Divided Roll Call Vote,http://chicityclerk.s3.amazonaws.com/s3fs-public/document_uploads/referred-matter/2018/Att%26DivRollCallVotes.pdf
2/28/2018,City Council - Attendance and Divided Roll Call Vote,http://chicityclerk.s3.amazonaws.com/s3fs-public/document_uploads/referred-matter/2018/ATTN DRC 02-28-2018.pdf
1/17/2018,City Council - Attendance and Divided Roll Call Vote,http://chicityclerk.s3.amazonaws.com/s3fs-public/document_uploads/referred-matter/2018/1_17_2018 FINAL  Att_Vote.pdf
12/13/2017,City Council - Attendance and Divided Roll Call Vote,http://chicityclerk.s3.amazonaws.com/s3fs-public/document_uploads/council-reports/2017/Attn-Roll Call Votes.pdf
11/21/2017,City Council - Attendance and Divided Roll Call Vote,http://chicityclerk.s3.amazonaws.com/s3fs-public/document_uploads/council-reports/2017/Attn%26DRC 11-21-2017.pdf
11/15/2017,City Council - Attendance and Divided Roll Call Vote,http://chicityclerk.s3.amazonaws.com/s3fs-public/document_uploads/referred-matter/2017/Divided RC-2017-11-15.pdf
11/8/2017,City Council - Attendance and Divided Roll Call Vote,http://chicityclerk.s3.amazonaws.com/s3fs-public/document_uploads/council-reports/2017/11-08-2017 Attendance and Divided Roll Call Vote.pdf
10/11/2017,City Council - Attendance and Divided Roll Call Vote,http://chicityclerk.s3.amazonaws.com/s3fs-public/document_uploads/council-reports/2017/Atn %26 Divided RC 10-11-2017-Final.pdf
9/6/2017,City Council - Attendance and Divided Roll Call Vote,http://chicityclerk.s3.amazonaws.com/s3fs-public/document_uploads/council-reports/2017/City Council - Attendance and Divided Roll Call Vote 09-06-2017.pdf
7/26/2017,City Council - Attendance and Divided Roll Call Vote,http://chicityclerk.s3.amazonaws.com/s3fs-public/document_uploads/referred-matter/2017/City Council - Attendance and Divided Roll Call Vote 07-26-2017.pdf
6/28/2017,City Council - Attendance and Divided Roll Call Vote,http://chicityclerk.s3.amazonaws.com/s3fs-public/document_uploads/council-reports/2017/City Council - Attendance and Divided Roll Call Vote 06-28-2017.pdf
5/24/2017,City Council - Attendance and Divided Roll Call Vote,http://chicityclerk.s3.amazonaws.com/s3fs-public/document_uploads/referred-matter/2017/City Council - Attendance and Divided Roll Call Vote 05-24-2017.pdf
4/19/2017,City Council - Attendance and Divided Roll Call Vote,http://chicityclerk.s3.amazonaws.com/s3fs-public/document_uploads/referred-matter/2017/City Council - Attendance and Divided Roll Call Vote 04-19-2017_0.pdf
3/29/2017,City Council - Attendance and Divided Roll Call Vote,http://chicityclerk.s3.amazonaws.com/s3fs-public/document_uploads/council-reports/2017/City Council - Attendance and Divided Roll Call Vote 03-29-2017.pdf
2/22/2017,City Council - Attendance and Divided Roll Call Vote,http://chicityclerk.s3.amazonaws.com/s3fs-public/document_uploads/council-reports/2017/City Council - Attendance and Divided Roll Call Vote 02-22-2017.pdf
1/25/2017,City Council - Attendance and Divided Roll Call Vote,http://chicityclerk.s3.amazonaws.com/s3fs-public/document_uploads/council-reports/2017/City Council - Attendance and Divided Roll Call Vote 01-25-2017.pdf
12/14/2016,City Council - Attendance and Divided Roll Call Vote,http://chicityclerk.s3.amazonaws.com/s3fs-public/document_uploads/council-reports/2016/City Council - Attendance and Divided Roll Call Vote 12-14-2016.pdf
11/16/2016,City Council - Attendance and Divided Roll Call Vote,http://chicityclerk.s3.amazonaws.com/s3fs-public/document_uploads/council-reports/2016/City Council - Attendance and Divided Roll Call Vote 11-16-2016.pdf
11/9/2016,City Council - Attendance and Divided Roll Call Vote,http://chicityclerk.s3.amazonaws.com/s3fs-public/document_uploads/council-reports/2016/City Council - Attendance and Divided Roll Call Vote 11-09-2016.pdf
11/1/2016,City Council - Attendance and Divided Roll Call Vote,http://chicityclerk.s3.amazonaws.com/s3fs-public/document_uploads/council-reports/2016/City Council - Attendance and Divided Roll Call Vote 11-01-2016.pdf
10/5/2016,City Council - Attendance and Divided Roll Call Vote,http://chicityclerk.s3.amazonaws.com/s3fs-public/document_uploads/council-reports/2016/City Council - Attendance and Divided Roll Call Vote 10-05-2016.pdf
9/14/2016,City Council - Attendance and Divided Roll Call Vote,http://chicityclerk.s3.amazonaws.com/s3fs-public/document_uploads/council-reports/2016/CityCouncilAttendanceDividedRollCallVote20160914.pdf
7/20/2016,City Council - Attendance and Divided Roll Call Vote,http://chicityclerk.s3.amazonaws.com/s3fs-public/document_uploads/council-reports/2016/City Council - Attendance and Divided Roll Call Vote 07-20-2016.pdf
6/23/2016,City Council - Attendance and Divided Roll Call Vote,http://chicityclerk.s3.amazonaws.com/s3fs-public/document_uploads/vote-summary/2016/CityCouncil-Attendance-and-DividedRollCallVote_20160622.pdf
5/18/2016,City Council - Attendance and Divided Roll Call Vote,http://chicityclerk.s3.amazonaws.com/s3fs-public/document_uploads/council-reports/2016/City Council - Attendance and Divided Roll Call Vote 05-18-2016.pdf
4/13/2016,City Council - Attendance and Divided Roll Call Vote,http://chicityclerk.s3.amazonaws.com/s3fs-public/document_uploads/vote-summary/2016/City Council - Attendance and Divided Roll Call Vote 04-13-2016_0.pdf
3/16/2016,City Council - Attendance and Divided Roll Call Vote,http://chicityclerk.s3.amazonaws.com/s3fs-public/document_uploads/council-reports/2016/City Council - Attendance and Divided Roll Call Vote 03-16-2016.pdf
2/10/2016,City Council - Attendance and Divided Roll Call Vote,http://chicityclerk.s3.amazonaws.com/s3fs-public/document_uploads/council-reports/2016/City Council - Attendance and Divided Roll Call Vote 02-10-2016.pdf
1/13/2016,City Council - Attendance and Divided Roll Call Vote,http://chicityclerk.s3.amazonaws.com/s3fs-public/document_uploads/council-reports/2016/CC_Attendance_DividedRollCallVote_20160113.pdf
12/9/2015,City Council - Attendance and Divided Roll Call Vote,http://chicityclerk.s3.amazonaws.com/s3fs-public/document_uploads/vote-summary/2015/City Council - Attendance and Divided Roll Call Vote 12-09-2015 .pdf
10/28/2015,City Council - Attendance and Divided Roll Call Vote,http://chicityclerk.s3.amazonaws.com/s3fs-public/document_uploads/vote-summary/2015/City Council - Attendance and Divided Roll Call Vote 10-28-2015 - .pdf
10/21/2015,City Council - Attendance and Divided Roll Call Vote,http://chicityclerk.s3.amazonaws.com/s3fs-public/document_uploads/vote-summary/2015/City Council - Attendance and Divided Roll Call Vote 10-21-2015.pdf
10/14/2015,City Council - Attendance and Divided Roll Call Vote,http://chicityclerk.s3.amazonaws.com/s3fs-public/document_uploads/vote-summary/2015/City Council - Attendance and Divided Roll Call Vote 10-14-2015.pdf
9/24/2015,City Council - Attendance and Divided Roll Call Vote,http://chicityclerk.s3.amazonaws.com/s3fs-public/document_uploads/council-reports/2015/City-Council---Attendance-and-Divided-Roll-Call-Vote-09-24-2015.pdf
7/29/2015,City Council - Attendance and Divided Roll Call Vote,http://chicityclerk.s3.amazonaws.com/s3fs-public/document_uploads/council-reports/2015/20150729_divided_roll_call_report.pdf
6/17/2015,City Council - Attendance and Divided Roll Call Vote,http://chicityclerk.s3.amazonaws.com/s3fs-public/document_uploads/council-reports/2015/20150617_divided_roll_call_report.pdf
5/20/2015,City Council - Attendance and Divided Roll Call Vote,http://chicityclerk.s3.amazonaws.com/s3fs-public/document_uploads/council-reports/2015/20150520_divided_roll_call_report.pdf
5/6/2015,City Council - Attendance and Divided Roll Call Vote,http://chicityclerk.s3.amazonaws.com/s3fs-public/document_uploads/council-reports/2015/20150506_divided_roll_call_report.pdf
4/15/2015,City Council - Attendance and Divided Roll Call Vote,http://chicityclerk.s3.amazonaws.com/s3fs-public/document_uploads/council-reports/2015/City-Council---Attendance-and-Divided-Roll-Call-Vote-04-15-2015---.pdf
3/18/2015,City Council - Attendance and Divided Roll Call Vote,http://chicityclerk.s3.amazonaws.com/s3fs-public/document_uploads/council-reports/2015/20150318-divided-roll-call-report.pdf
1/21/2015,City Council - Attendance and Divided Roll Call Vote,http://chicityclerk.s3.amazonaws.com/s3fs-public/document_uploads/council-reports/2015/20150121-divided-roll-call-report.pdf
12/10/2014,City Council - Attendance and Divided Roll Call Vote,http://chicityclerk.s3.amazonaws.com/s3fs-public/document_uploads/council-reports/2014/20141210-divided-roll-call-report.pdf
12/2/2014,City Council - Attendance and Divided Roll Call Vote,http://chicityclerk.s3.amazonaws.com/s3fs-public/document_uploads/council-reports/2014/20141202-divided-roll-call-report.pdf
11/19/2014,City Council - Attendance and Divided Roll Call Vote,http://chicityclerk.s3.amazonaws.com/s3fs-public/document_uploads/council-reports/2014/20141119-divided-roll-call-report.pdf
11/12/2014,City Council - Attendance and Divided Roll Call Vote,http://chicityclerk.s3.amazonaws.com/s3fs-public/document_uploads/council-reports/2014/20141112-divided-roll-call-report.pdf
11/5/2014,City Council - Attendance and Divided Roll Call Vote,http://chicityclerk.s3.amazonaws.com/s3fs-public/document_uploads/council-reports/2014/20141105-divided-roll-call-report.pdf
10/8/2014,City Council - Attendance and Divided Roll Call Vote,http://chicityclerk.s3.amazonaws.com/s3fs-public/document_uploads/council-reports/2016/City Council - Attendance and Divided Roll Call Vote 10-08-2014 - .pdf
9/10/2014,City Council - Attendance and Divided Roll Call Vote,http://chicityclerk.s3.amazonaws.com/s3fs-public/document_uploads/council-reports/2014/20140910-divided-roll-call-report-2.pdf
7/30/2014,City Council - Attendance and Divided Roll Call Vote,http://chicityclerk.s3.amazonaws.com/s3fs-public/document_uploads/council-reports/2014/20140730-divided-roll-call-report.pdf
6/25/2014,City Council - Attendance and Divided Roll Call Vote,http://chicityclerk.s3.amazonaws.com/s3fs-public/document_uploads/council-reports/2014/20140625-divided-roll-call-report.pdf
5/28/2014,City Council - Attendance and Divided Roll Call Vote,http://chicityclerk.s3.amazonaws.com/s3fs-public/document_uploads/council-reports/2014/20140528-divided-roll-call-report.pdf
4/30/2014,City Council - Attendance and Divided Roll Call Vote,http://chicityclerk.s3.amazonaws.com/s3fs-public/document_uploads/council-reports/2014/20140430-divided-roll-call-report.pdf
4/2/2014,City Council - Attendance and Divided Roll Call Vote,http://chicityclerk.s3.amazonaws.com/s3fs-public/document_uploads/council-reports/2014/20140402-divided-roll-call-report.pdf
3/5/2014,City Council - Attendance and Divided Roll Call Vote,http://chicityclerk.s3.amazonaws.com/s3fs-public/document_uploads/council-reports/2014/20140305-divided-roll-call-report.pdf
2/5/2014,City Council - Attendance and Divided Roll Call Vote,http://chicityclerk.s3.amazonaws.com/s3fs-public/document_uploads/council-reports/2014/20140205-divided-roll-call-report.pdf
1/15/2014,City Council - Attendance and Divided Roll Call Vote,http://chicityclerk.s3.amazonaws.com/s3fs-public/document_uploads/council-reports/2014/20140115-divided-roll-call-report.pdf
12/11/2013,City Council - Attendance and Divided Roll Call Vote,http://chicityclerk.s3.amazonaws.com/s3fs-public/document_uploads/council-reports/2013/20131211-divided-roll-call-report.pdf
11/13/2013,City Council - Attendance and Divided Roll Call Vote,http://chicityclerk.s3.amazonaws.com/s3fs-public/document_uploads/council-reports/2013/20131113-divided-roll-call-report.pdf
10/16/2013,City Council - Attendance and Divided Roll Call Vote,http://chicityclerk.s3.amazonaws.com/s3fs-public/document_uploads/council-reports/2013/20131016-divided-roll-call-report.pdf
9/11/2013,City Council - Attendance and Divided Roll Call Vote,http://chicityclerk.s3.amazonaws.com/s3fs-public/document_uploads/council-reports/2013/20130911-divided-roll-call-report.pdf
7/24/2013,City Council - Attendance and Divided Roll Call Vote,http://chicityclerk.s3.amazonaws.com/s3fs-public/document_uploads/council-reports/2013/20130724-divided-roll-call-report.pdf
7/17/2013,City Council - Attendance and Divided Roll Call Vote,http://chicityclerk.s3.amazonaws.com/s3fs-public/document_uploads/council-reports/2013/20130717-divided-roll-call-report.pdf
6/26/2013,City Council - Attendance and Divided Roll Call Vote,http://chicityclerk.s3.amazonaws.com/s3fs-public/document_uploads/council-reports/2013/Attendance_and_Divided_Roll_Call_Vote_6-26-2013.pdf
6/5/2013,City Council - Attendance and Divided Roll Call Vote,http://chicityclerk.s3.amazonaws.com/s3fs-public/document_uploads/council-reports/2013/20130605-divided-roll-call-report.pdf
5/8/2013,City Council - Attendance and Divided Roll Call Vote,http://chicityclerk.s3.amazonaws.com/s3fs-public/document_uploads/council-reports/2013/20130508-divided-roll-call-report.pdf
4/10/2013,City Council - Attendance and Divided Roll Call Vote,http://chicityclerk.s3.amazonaws.com/s3fs-public/document_uploads/council-reports/2013/20130410-divided-roll-call-report.pdf
3/13/2013,City Council - Attendance and Divided Roll Call Vote,http://chicityclerk.s3.amazonaws.com/s3fs-public/document_uploads/council-reports/2013/20130313-divided-roll-call-report.pdf
2/13/2013,City Council - Attendance and Divided Roll Call Vote,http://chicityclerk.s3.amazonaws.com/s3fs-public/document_uploads/council-reports/2013/20130213-divided-roll-call-report.pdf
1/17/2013,City Council - Attendance and Divided Roll Call Vote,http://chicityclerk.s3.amazonaws.com/s3fs-public/document_uploads/council-reports/2013/Divided-Roll-Call-Report-2013.01.17.pdf
12/12/2012,City Council - Attendance and Divided Roll Call Vote,http://chicityclerk.s3.amazonaws.com/s3fs-public/document_uploads/council-reports/2012/Divided-Roll-Call-Report-2012.12.12.pdf
11/15/2012,City Council - Attendance and Divided Roll Call Vote,http://chicityclerk.s3.amazonaws.com/s3fs-public/document_uploads/council-reports/2012/1115.pdf
11/8/2012,City Council - Attendance and Divided Roll Call Vote,http://chicityclerk.s3.amazonaws.com/s3fs-public/document_uploads/council-reports/2012/nov8_2012consolidated.pdf
10/31/2012,City Council - Attendance and Divided Roll Call Vote,http://chicityclerk.s3.amazonaws.com/s3fs-public/document_uploads/council-reports/2012/oct31_2012.pdf
10/3/2012,City Council - Attendance and Divided Roll Call Vote,http://chicityclerk.s3.amazonaws.com/s3fs-public/document_uploads/council-reports/2012/oct3_2012.pdf
9/12/2012,City Council - Attendance and Divided Roll Call Vote,http://chicityclerk.s3.amazonaws.com/s3fs-public/document_uploads/council-reports/2012/sept12_2012.pdf
7/25/2012,City Council - Attendance and Divided Roll Call Vote,http://chicityclerk.s3.amazonaws.com/s3fs-public/document_uploads/council-reports/2012/july25_2012.pdf
6/27/2012,City Council - Attendance and Divided Roll Call Vote,http://chicityclerk.s3.amazonaws.com/s3fs-public/document_uploads/council-reports/2012/june27_2012.pdf
6/6/2012,City Council - Attendance and Divided Roll Call Vote,http://chicityclerk.s3.amazonaws.com/s3fs-public/document_uploads/council-reports/2012/june6_2012.pdf
5/9/2012,City Council - Attendance and Divided Roll Call Vote,http://chicityclerk.s3.amazonaws.com/s3fs-public/document_uploads/council-reports/2012/may9_2012.pdf
4/24/2012,City Council - Attendance and Divided Roll Call Vote,http://chicityclerk.s3.amazonaws.com/s3fs-public/document_uploads/council-reports/2012/april24_2012.pdf
4/18/2012,City Council - Attendance and Divided Roll Call Vote,http://chicityclerk.s3.amazonaws.com/s3fs-public/document_uploads/council-reports/2012/april18_2012.pdf
3/14/2012,City Council - Attendance and Divided Roll Call Vote,http://chicityclerk.s3.amazonaws.com/s3fs-public/document_uploads/council-reports/2012/mar14_2012.pdf
2/15/2012,City Council - Attendance and Divided Roll Call Vote,http://chicityclerk.s3.amazonaws.com/s3fs-public/document_uploads/council-reports/2012/feb15_2012.pdf
1/19/2012,City Council - Attendance and Divided Roll Call Vote,http://chicityclerk.s3.amazonaws.com/s3fs-public/document_uploads/council-reports/2012/jan19_2012.pdf
1/18/2012,City Council - Attendance and Divided Roll Call Vote,http://chicityclerk.s3.amazonaws.com/s3fs-public/document_uploads/council-reports/2012/jan18_2012.pdf
12/14/2011,City Council - Attendance and Divided Roll Call Vote,http://chicityclerk.s3.amazonaws.com/s3fs-public/document_uploads/council-reports/2011/dec14_2011.pdf
11/16/2011,City Council - Attendance and Divided Roll Call Vote,http://chicityclerk.s3.amazonaws.com/s3fs-public/document_uploads/council-reports/2011/nov16_2011.pdf
11/9/2011,City Council - Attendance and Divided Roll Call Vote,http://chicityclerk.s3.amazonaws.com/s3fs-public/document_uploads/council-reports/2011/nov9_2011.pdf
11/2/2011,City Council - Attendance and Divided Roll Call Vote,http://chicityclerk.s3.amazonaws.com/s3fs-public/document_uploads/council-reports/2011/nov2_2011.pdf
10/12/2011,City Council - Attendance and Divided Roll Call Vote,http://chicityclerk.s3.amazonaws.com/s3fs-public/document_uploads/council-reports/2011/oct12_2011.pdf
10/5/2011,City Council - Attendance and Divided Roll Call Vote,http://chicityclerk.s3.amazonaws.com/s3fs-public/document_uploads/council-reports/2011/oct5_2011.pdf
7/28/2011,City Council - Attendance and Divided Roll Call Vote,http://chicityclerk.s3.amazonaws.com/s3fs-public/document_uploads/council-reports/2011/july28_2011.pdf
7/6/2011,City Council - Attendance and Divided Roll Call Vote,http://chicityclerk.s3.amazonaws.com/s3fs-public/document_uploads/council-reports/2011/july6_2011.pdf
6/8/2011,City Council - Attendance and Divided Roll Call Vote,http://chicityclerk.s3.amazonaws.com/s3fs-public/document_uploads/council-reports/2011/june8_2011.pdf
5/18/2011,City Council - Attendance and Divided Roll Call Vote,http://chicityclerk.s3.amazonaws.com/s3fs-public/document_uploads/council-reports/2011/may18_2011.pdf
5/4/2011,City Council - Attendance and Divided Roll Call Vote,http://chicityclerk.s3.amazonaws.com/s3fs-public/document_uploads/council-reports/2011/may4_2011.pdf
4/13/2011,City Council - Attendance and Divided Roll Call Vote,http://chicityclerk.s3.amazonaws.com/s3fs-public/document_uploads/council-reports/2011/apr13_2011.pdf
3/9/2011,City Council - Attendance and Divided Roll Call Vote,http://chicityclerk.s3.amazonaws.com/s3fs-public/document_uploads/council-reports/2011/mar9_2011.pdf
2/9/2011,City Council - Attendance and Divided Roll Call Vote,http://chicityclerk.s3.amazonaws.com/s3fs-public/document_uploads/council-reports/2011/feb9_2011.pdf
1/13/2011,City Council - Attendance and Divided Roll Call Vote,http://chicityclerk.s3.amazonaws.com/s3fs-public/document_uploads/council-reports/2011/jan13_2011.pdf
12/8/2010,City Council - Attendance and Divided Roll Call Vote,http://chicityclerk.s3.amazonaws.com/s3fs-public/document_uploads/council-reports/2010/dec8_2010.pdf
11/17/2010,City Council - Attendance and Divided Roll Call Vote,http://chicityclerk.s3.amazonaws.com/s3fs-public/document_uploads/council-reports/2010/nov17_2010.pdf
11/10/2010,City Council - Attendance and Divided Roll Call Vote,http://chicityclerk.s3.amazonaws.com/s3fs-public/document_uploads/council-reports/2010/nov10_2010.pdf
11/3/2010,City Council - Attendance and Divided Roll Call Vote,http://chicityclerk.s3.amazonaws.com/s3fs-public/document_uploads/council-reports/2010/nov3_2010.pdf
10/13/2010,City Council - Attendance and Divided Roll Call Vote,http://chicityclerk.s3.amazonaws.com/s3fs-public/document_uploads/council-reports/2010/oct13_2010.pdf
10/6/2010,City Council - Attendance and Divided Roll Call Vote,http://chicityclerk.s3.amazonaws.com/s3fs-public/document_uploads/council-reports/2010/oct6_2010.pdf
9/8/2010,City Council - Attendance and Divided Roll Call Vote,http://chicityclerk.s3.amazonaws.com/s3fs-public/document_uploads/council-reports/2010/sept8_2010.pdf
7/28/2010,City Council - Attendance and Divided Roll Call Vote,http://chicityclerk.s3.amazonaws.com/s3fs-public/document_uploads/council-reports/2010/july28_2010.pdf
7/2/2010,City Council - Attendance and Divided Roll Call Vote,http://chicityclerk.s3.amazonaws.com/s3fs-public/document_uploads/council-reports/2010/july2_2010.pdf
6/30/2010,City Council - Attendance and Divided Roll Call Vote,http://chicityclerk.s3.amazonaws.com/s3fs-public/document_uploads/council-reports/2010/june30_2010.pdf
6/9/2010,City Council - Attendance and Divided Roll Call Vote,http://chicityclerk.s3.amazonaws.com/s3fs-public/document_uploads/council-reports/2010/june9_2010.pdf
5/12/2010,City Council - Attendance and Divided Roll Call Vote,http://chicityclerk.s3.amazonaws.com/s3fs-public/document_uploads/council-reports/2010/may12_2010.pdf
4/14/2010,City Council - Attendance and Divided Roll Call Vote,http://chicityclerk.s3.amazonaws.com/s3fs-public/document_uploads/council-reports/2010/apr14_2010.pdf
3/31/2010,City Council - Attendance and Divided Roll Call Vote,http://chicityclerk.s3.amazonaws.com/s3fs-public/document_uploads/council-reports/2010/mar31_2010.pdf
3/26/2010,City Council - Attendance and Divided Roll Call Vote,http://chicityclerk.s3.amazonaws.com/s3fs-public/document_uploads/council-reports/2010/mar26_2010.pdf
3/10/2010,City Council - Attendance and Divided Roll Call Vote,http://chicityclerk.s3.amazonaws.com/s3fs-public/document_uploads/council-reports/2010/mar10_2010.pdf
2/10/2010,City Council - Attendance and Divided Roll Call Vote,http://chicityclerk.s3.amazonaws.com/s3fs-public/document_uploads/council-reports/2010/feb10_2010.pdf
1/13/2010,City Council - Attendance and Divided Roll Call Vote,http://chicityclerk.s3.amazonaws.com/s3fs-public/document_uploads/council-reports/2010/jan13_2010.pdf
12/16/2009,City Council - Attendance and Divided Roll Call Vote,http://chicityclerk.s3.amazonaws.com/s3fs-public/document_uploads/council-reports/2009/dec16_2009.pdf
12/2/2009,City Council - Attendance and Divided Roll Call Vote,http://chicityclerk.s3.amazonaws.com/s3fs-public/document_uploads/council-reports/2009/dec2_2009.pdf
11/25/2009,City Council - Attendance and Divided Roll Call Vote,http://chicityclerk.s3.amazonaws.com/s3fs-public/document_uploads/council-reports/2009/nov25_2009.pdf
11/18/2009,City Council - Attendance and Divided Roll Call Vote,http://chicityclerk.s3.amazonaws.com/s3fs-public/document_uploads/council-reports/2009/nov18_2009.pdf
10/7/2009,City Council - Attendance and Divided Roll Call Vote,http://chicityclerk.s3.amazonaws.com/s3fs-public/document_uploads/council-reports/2009/oct7_2009.pdf
9/9/2009,City Council - Attendance and Divided Roll Call Vote,http://chicityclerk.s3.amazonaws.com/s3fs-public/document_uploads/council-reports/2009/sept9_2009.pdf
7/29/2009,City Council - Attendance and Divided Roll Call Vote,http://chicityclerk.s3.amazonaws.com/s3fs-public/document_uploads/council-reports/2009/july29_2009.pdf
6/30/2009,City Council - Attendance and Divided Roll Call Vote,
6/3/2009,City Council - Attendance and Divided Roll Call Vote,http://chicityclerk.s3.amazonaws.com/s3fs-public/document_uploads/council-reports/2009/june3_2009.pdf
5/13/2009,City Council - Attendance and Divided Roll Call Vote,http://chicityclerk.s3.amazonaws.com/s3fs-public/document_uploads/council-reports/2009/may13_2009.pdf
4/22/2009,City Council - Attendance and Divided Roll Call Vote,http://chicityclerk.s3.amazonaws.com/s3fs-public/document_uploads/council-reports/2009/apr22_2009.pdf
3/18/2009,City Council - Attendance and Divided Roll Call Vote,http://chicityclerk.s3.amazonaws.com/s3fs-public/document_uploads/council-reports/2009/mar18_2010.pdf
2/11/2009,City Council - Attendance and Divided Roll Call Vote,http://chicityclerk.s3.amazonaws.com/s3fs-public/document_uploads/council-reports/2009/feb11_2009.pdf
1/13/2009,City Council - Attendance and Divided Roll Call Vote,http://chicityclerk.s3.amazonaws.com/s3fs-public/document_uploads/council-reports/2009/jan13_2009.pdf
12/17/2008,City Council - Attendance and Divided Roll Call Vote,http://chicityclerk.s3.amazonaws.com/s3fs-public/document_uploads/council-reports/2008/dec17_2008.pdf
12/4/2008,City Council - Attendance and Divided Roll Call Vote,http://chicityclerk.s3.amazonaws.com/s3fs-public/document_uploads/council-reports/2008/dec4_2008.pdf
11/19/2008,City Council - Attendance and Divided Roll Call Vote,http://chicityclerk.s3.amazonaws.com/s3fs-public/document_uploads/council-reports/2008/nov19_2008.pdf
11/12/2008,City Council - Attendance and Divided Roll Call Vote,http://chicityclerk.s3.amazonaws.com/s3fs-public/document_uploads/council-reports/2008/nov12_2008.pdf
11/5/2008,City Council - Attendance and Divided Roll Call Vote,http://chicityclerk.s3.amazonaws.com/s3fs-public/document_uploads/council-reports/2008/nov5_2008.pdf
10/8/2008,City Council - Attendance and Divided Roll Call Vote,http://chicityclerk.s3.amazonaws.com/s3fs-public/document_uploads/council-reports/2008/oct8_2008.pdf
9/10/2008,City Council - Attendance and Divided Roll Call Vote,http://chicityclerk.s3.amazonaws.com/s3fs-public/document_uploads/council-reports/2008/sept10_2008.pdf
7/30/2008,City Council - Attendance and Divided Roll Call Vote,http://chicityclerk.s3.amazonaws.com/s3fs-public/document_uploads/council-reports/2008/jul30_2008.pdf
6/11/2008,City Council - Attendance and Divided Roll Call Vote,http://chicityclerk.s3.amazonaws.com/s3fs-public/document_uploads/council-reports/2008/june11_2008.pdf
5/14/2008,City Council - Attendance and Divided Roll Call Vote,http://chicityclerk.s3.amazonaws.com/s3fs-public/document_uploads/council-reports/2008/may14_2008.pdf
4/9/2008,City Council - Attendance and Divided Roll Call Vote,http://chicityclerk.s3.amazonaws.com/s3fs-public/document_uploads/council-reports/2008/apr9_2008.pdf
3/12/2008,City Council - Attendance and Divided Roll Call Vote,http://chicityclerk.s3.amazonaws.com/s3fs-public/document_uploads/council-reports/2008/mar12_2008.pdf
2/6/2008,City Council - Attendance and Divided Roll Call Vote,http://chicityclerk.s3.amazonaws.com/s3fs-public/document_uploads/council-reports/2008/feb6_2008.pdf
1/9/2008,City Council - Attendance and Divided Roll Call Vote,http://chicityclerk.s3.amazonaws.com/s3fs-public/document_uploads/council-reports/2008/jan9_2008.pdf
12/12/2007,City Council - Attendance and Divided Roll Call Vote,http://chicityclerk.s3.amazonaws.com/s3fs-public/document_uploads/council-reports/2007/dec12_2007.pdf
11/13/2007,City Council - Attendance and Divided Roll Call Vote,http://chicityclerk.s3.amazonaws.com/s3fs-public/document_uploads/council-reports/2007/nov13_2007.pdf
11/7/2007,City Council - Attendance and Divided Roll Call Vote,http://chicityclerk.s3.amazonaws.com/s3fs-public/document_uploads/council-reports/2007/nov7_2007.pdf
10/31/2007,City Council - Attendance and Divided Roll Call Vote,http://chicityclerk.s3.amazonaws.com/s3fs-public/document_uploads/council-reports/2007/oct31_2007.pdf
9/27/2007,City Council - Attendance and Divided Roll Call Vote,http://chicityclerk.s3.amazonaws.com/s3fs-public/document_uploads/council-reports/2007/sept27_2007.pdf
9/5/2007,City Council - Attendance and Divided Roll Call Vote,http://chicityclerk.s3.amazonaws.com/s3fs-public/document_uploads/council-reports/2007/sept5_2007.pdf
7/19/2007,City Council - Attendance and Divided Roll Call Vote,http://chicityclerk.s3.amazonaws.com/s3fs-public/document_uploads/council-reports/2007/july19_2007.pdf
6/13/2007,City Council - Attendance and Divided Roll Call Vote,http://chicityclerk.s3.amazonaws.com/s3fs-public/document_uploads/council-reports/2007/june13_2007.pdf
5/23/2007,City Council - Attendance and Divided Roll Call Vote,http://chicityclerk.s3.amazonaws.com/s3fs-public/document_uploads/council-reports/2007/may23_2007.pdf
5/9/2007,City Council - Attendance and Divided Roll Call Vote,http://chicityclerk.s3.amazonaws.com/s3fs-public/document_uploads/council-reports/2007/may9_2007.pdf
4/11/2007,City Council - Attendance and Divided Roll Call Vote,http://chicityclerk.s3.amazonaws.com/s3fs-public/document_uploads/council-reports/2007/apr11_2007.pdf
3/14/2007,City Council - Attendance and Divided Roll Call Vote,http://chicityclerk.s3.amazonaws.com/s3fs-public/document_uploads/council-reports/2007/mar14_2007.pdf
2/7/2007,City Council - Attendance and Divided Roll Call Vote,http://chicityclerk.s3.amazonaws.com/s3fs-public/document_uploads/council-reports/2007/feb7_2007.pdf
1/11/2007,City Council - Attendance and Divided Roll Call Vote,http://chicityclerk.s3.amazonaws.com/s3fs-public/document_uploads/council-reports/2007/jan11_2007.pdf
12/13/2006,City Council - Attendance and Divided Roll Call Vote,http://chicityclerk.s3.amazonaws.com/s3fs-public/document_uploads/council-reports/2006/dec13_2006.pdf
11/19/2006,City Council - Attendance and Divided Roll Call Vote,http://chicityclerk.s3.amazonaws.com/s3fs-public/document_uploads/council-reports/2006/nov19_2006.pdf
11/15/2006,City Council - Attendance and Divided Roll Call Vote,http://chicityclerk.s3.amazonaws.com/s3fs-public/document_uploads/council-reports/2006/nov15_2006.pdf
11/8/2006,City Council - Attendance and Divided Roll Call Vote,http://chicityclerk.s3.amazonaws.com/s3fs-public/document_uploads/council-reports/2006/nov8_2006.pdf
11/1/2006,City Council - Attendance and Divided Roll Call Vote,http://chicityclerk.s3.amazonaws.com/s3fs-public/document_uploads/council-reports/2006/nov1_2006.pdf
10/4/2006,City Council - Attendance and Divided Roll Call Vote,http://chicityclerk.s3.amazonaws.com/s3fs-public/document_uploads/council-reports/2006/oct4_2006.pdf
9/13/2006,City Council - Attendance and Divided Roll Call Vote,http://chicityclerk.s3.amazonaws.com/s3fs-public/document_uploads/council-reports/2006/sept13_2006.pdf
7/26/2006,City Council - Attendance and Divided Roll Call Vote,http://chicityclerk.s3.amazonaws.com/s3fs-public/document_uploads/council-reports/2006/july26_2006.pdf
6/28/2006,City Council - Attendance and Divided Roll Call Vote,http://chicityclerk.s3.amazonaws.com/s3fs-public/document_uploads/council-reports/2006/june28_2006.pdf
5/24/2006,City Council - Attendance and Divided Roll Call Vote,http://chicityclerk.s3.amazonaws.com/s3fs-public/document_uploads/council-reports/2006/may24_2006.pdf
